
LAMP-DOCKER-MYSQL

sudo docker exec -i -t ff7070c662b4  /bin/bash 

"Despues de crear la base de datos entrando al contenedor de  'lamp-docker-mysql'"

sudo  docker exec -i ff7070c662b4  mysql -uroot -proot Infractions < import_infracciones.sql

"en la consola y despues volver a entrar en el contenedor de lamp-docker-mysql para chequear si se creo la tablas import_infracciones"
 
